%YAML 1.1
%TAG !u! tag:unity3d.com,2011:
--- !u!21 &2100000
Material:
  serializedVersion: 5
  m_ObjectHideFlags: 0
  m_PrefabParentObject: {fileID: 0}
  m_PrefabInternal: {fileID: 0}
  m_Name: Mace_dissolve
  m_Shader: {fileID: 4800000, guid: f24fb217459e40c4e996562de218a037, type: 3}
  m_ShaderKeywords: 
  m_LightmapFlags: 5
  m_CustomRenderQueue: -1
  m_SavedProperties:
    serializedVersion: 2
    m_TexEnvs:
      data:
        first:
          name: _MainTex
        second:
          m_Texture: {fileID: 2800000, guid: d50fcb5ccb5b0cd4ab75e289363a940a, type: 3}
          m_Scale: {x: 1, y: 1}
          m_Offset: {x: 0, y: 0}
      data:
        first:
          name: _BumpMap
        second:
          m_Texture: {fileID: 2800000, guid: 08c13713f282b9f4eb269c28a7c0e93b, type: 3}
          m_Scale: {x: 1, y: 1}
          m_Offset: {x: 0, y: 0}
      data:
        first:
          name: _Diffuse
        second:
          m_Texture: {fileID: 2800000, guid: 9e9a48b9deea51748a308be7e77a8741, type: 3}
          m_Scale: {x: 1, y: 1}
          m_Offset: {x: 0, y: 0}
      data:
        first:
          name: _Normal
        second:
          m_Texture: {fileID: 2800000, guid: bbca51ca75fee444bb8733728170d97e, type: 3}
          m_Scale: {x: 1, y: 1}
          m_Offset: {x: 0, y: 0}
      data:
        first:
          name: _ColorifyMaskTex
        second:
          m_Texture: {fileID: 2800000, guid: a0422022b82d49d42b5a59b5b8887825, type: 3}
          m_Scale: {x: 1, y: 1}
          m_Offset: {x: 0, y: 0}
    m_Floats:
      data:
        first:
          name: _Shininess
        second: .100315556
      data:
        first:
          name: _Range
        second: .7957142
      data:
        first:
          name: _HueRange
        second: .171428576
      data:
        first:
          name: _Range2
        second: 2
      data:
        first:
          name: _HueRange2
        second: .571428597
      data:
        first:
          name: _Debug
        second: 0
      data:
        first:
          name: _Dissolve
        second: 1
      data:
        first:
          name: _EdgeWidth
        second: .153571427
      data:
        first:
          name: _RimPower
        second: 2.19000006
    m_Colors:
      data:
        first:
          name: _Color
        second: {r: 1, g: 1, b: 1, a: 1}
      data:
        first:
          name: _SpecColor
        second: {r: .494117647, g: .494117647, b: .494117647, a: 1}
      data:
        first:
          name: _PatCol
        second: {r: 1, g: 0, b: .0243902206, a: 1}
      data:
        first:
          name: _NewColor
        second: {r: 0, g: 1, b: .213793278, a: 1}
      data:
        first:
          name: _PatCol2
        second: {r: .235294104, g: .0823710933, b: 0, a: 1}
      data:
        first:
          name: _NewColor2
        second: {r: .366890162, g: .573529422, b: .402517617, a: 1}
      data:
        first:
          name: _EdgeColor
        second: {r: .986207008, g: 0, b: 1, a: 1}
      data:
        first:
          name: _MainColor
        second: {r: 1, g: 1, b: 1, a: 1}
      data:
        first:
          name: _Spec
        second: {r: .16911763, g: .16911763, b: .16911763, a: 1}
      data:
        first:
          name: _RimColor
        second: {r: .220588207, g: .220588207, b: .220588207, a: 0}
